20

5
kliuhW6E-65545483
L6piWklG-58347726
qAbID0qo-91192277
dgSUlQWq-54470795
SQGz7rMl-26570473
1 5 3 2 4
1 3 5 4 2
4 3 5 1 2
4 2 3 1 5
4 2 3 5 1
4 2 5 3 1
5 1 3 4 2
5 4 1 3 2

1
qkmrqhQs-81529940
1
1
1
1
1

2
cYcDoIIw-50741691
_Cze3IWe-46941144
1 2
1 2
1 2
2 1
1 2
2 1
1 2
2 1
2 1
1 2

10
oEQL2ZVs-93936116
3zQMuS9t-46060608
0psCYIPJ-47390839
L3gtKNZW-37431088
qDzEC9fP-93273492
AlBfXgDn-06721765
RKJ4RD1Q-28122549
l6If_5SN-20848328
YILmr8Cw-71908591
1SHSwQ_M-56341103
1 9 8 6 10 5 2 4 3 7
3 1 10 9 8 2 4 5 7 6
7 4 9 1 3 6 2 10 8 5
7 8 5 9 3 4 2 10 6 1
10 2 3 4 5 7 6 8 9 1
10 8 1 9 4 2 3 5 6 7
9 2 8 4 1 6 7 3 5 10
8 4 5 3 10 6 1 9 2 7
4 7 1 10 3 9 5 2 8 6

6
YGjCJJQl-18680766
tnBM6pJK-90687182
fwcAyfFg-76830534
cNNDhBlh-82059609
Vhgxth6n-68283360
nukDTeIB-50324214
3 6 4 1 2 5
2 3 4 5 6 1
4 1 5 2 6 3
4 5 6 1 2 3
1 6 3 4 2 5

4
OS87AN3s-36332794
sAzYTNg7-46743590
0NXlpwIa-03055739
2ZrsHOVK-77284694
1 4 2 3
1 2 3 4
2 1 3 4

7
ngryCPq9-59294369
djClYp59-82829652
tRepyFls-14863418
MBgRFaXl-45596502
zqWrf9F4-92170978
CzQ1V1gX-83787848
8tm1TUn6-13658528
4 6 2 5 1 7 3
1 7 3 6 5 4 2
1 6 7 5 4 2 3

1
jQ5Sav9y-93303523
1
1
1
1
1
1

10
7PJq0lb_-58175229
LX9ZnJni-15490968
T1vNnpcg-61446786
Cgm6beAq-01071749
q5t9_fXs-44701100
SDbEmlKi-03213229
irEXOKi8-04939541
CpgeY3iY-03642465
JgMnD8b5-63738723
CytFlHqu-42295297
1 4 9 2 7 3 5 6 8 10

6
7EVWl40C-12658975
ekUxoABa-17670100
yV27t995-63068098
xbgXy1Z3-40719993
nbH11Ppg-18332952
pkpSqdN2-48465836
3 5 1 4 2 6
5 2 6 3 1 4
2 5 6 4 3 1
4 6 1 3 5 2
5 2 6 3 1 4

6
nArkXHdj-81014098
1I7EUTDh-94735134
2zdULDvT-77386793
5nA6yNCw-89798775
rCcW8kjF-22880141
Vvlq7EoJ-94870928
6 2 1 3 5 4
5 4 6 2 3 1
1 5 2 6 3 4
1 2 6 4 3 5
5 4 3 2 1 6
5 3 6 4 2 1
4 2 5 3 6 1
2 4 3 5 1 6
4 1 5 6 2 3
4 3 1 5 2 6
1 2 5 3 6 4
3 4 6 2 1 5
3 4 1 6 2 5
2 5 6 1 3 4
5 4 6 1 2 3

4
5duv4t8S-48245434
e9MPB7TO-95137605
RtKqfJc1-45305019
KPfjfMaC-43270587
3 1 4 2
4 3 2 1
1 4 2 3
3 1 2 4
1 2 3 4
4 2 1 3
1 2 3 4
3 4 1 2
4 1 3 2
3 1 4 2
1 2 3 4
1 3 4 2
1 3 2 4
1 4 2 3

3
_ooF6HK5-66772276
_NHfkySp-66179403
54LOwL1N-63647785
3 1 2
1 3 2

5
fjfpjLZP-64124273
GQAnPBOn-20655217
wUhIktgJ-10185082
3rsFTpZa-99205082
nJaWYSnT-73145375
1 3 2 5 4
4 5 1 3 2
4 2 5 1 3
4 2 1 3 5
3 2 5 1 4
4 1 3 5 2
1 5 2 3 4
4 2 3 5 1
2 3 5 4 1

6
nTIc1UNH-67003508
46JedJus-50082359
s94J2uq5-88493362
WQYL3i8R-68417183
CJ8N7a9l-70803366
DyDSDEqd-34037924
4 3 6 2 1 5
2 1 5 3 4 6
5 1 4 6 3 2
2 3 1 5 4 6
6 4 2 5 3 1
6 4 1 2 5 3
3 1 2 5 6 4

5
ciUBRwZm-98075767
qmhjvzcJ-41410655
75e4FBGf-44683189
1YralcpU-32175650
hCsCQImF-08873947
3 2 5 1 4
3 4 1 2 5
4 3 2 1 5
2 1 3 4 5
1 4 2 3 5

8
aEb6ACbO-68109421
zu5bbU9d-30442791
wrPpES5v-96133595
XQW85FSD-52111790
fomML_nR-50893164
bEL9COQg-88253453
BmiSwvxl-22069856
Lngc1p5c-61036339
1 6 5 2 3 8 4 7
1 7 5 3 8 4 6 2
3 6 5 2 8 4 7 1
4 1 5 7 8 6 3 2
5 1 6 4 2 8 7 3
1 4 2 5 7 8 6 3

3
VJBd49x5-01735129
S8fOBFqt-43703306
P95LD5ZN-87438291
1 2 3
3 2 1
1 3 2
1 3 2
3 2 1
2 3 1
2 1 3
1 2 3

3
0H51UCec-57790791
YjDOJxZT-19437307
mTEqxAEr-66139782
2 1 3
3 2 1
2 3 1
2 3 1
2 3 1
2 1 3
3 2 1
2 3 1
1 2 3

6
cuuBSXJj-11293325
np04Bhzk-95708809
KmWy9W03-44452840
WH923sAc-42849882
S4L0ahJJ-09356081
0Yr94IdC-86096110
4 1 3 2 5 6
2 4 1 6 3 5
3 1 5 4 2 6
1 6 2 4 3 5
3 1 2 5 6 4
