9Zh5wJEw-17458870
9FA58edf-74900671

hQv3UIFt-65262411

yiiuknX_-50639498
sYk0fgt5-90701204

XzzhZXn5-70039853
58uq0ubz-64866265
10NtUVCa-72596750

Fj0wJFEb-69543050

GSyQQQ5W-18658122
V0DpkFre-88661564
WpWl1rgL-31623492
CAGUlC4E-75657600

II9reoRe-31308605

wAV0hvs1-57050849
4xGomZGe-28065847
sMYRQIg9-31832472
ASkqxwKx-58353406
oQVkICa_-24415003
pAPyvx2h-82644040

zwJ1Dh19-84444776

PiIEIhQ5-13433394

9Zh5wJEw-17458870
9FA58edf-74900671
yuz_PtI0-78935918

w6Tbmuw0-61723233

PiIEIhQ5-13433394

sYk0fgt5-90701204

XzzhZXn5-70039853
58uq0ubz-64866265
10NtUVCa-72596750

e38RTP59-02747319
3TpK_vxX-49673522
51krewWr-34339411
wMXHhRcK-73868933

09XBTLFU-29567798
Fj0wJFEb-69543050
QC1ttEyg-98978971

GSyQQQ5W-18658122
V0DpkFre-88661564
WpWl1rgL-31623492
CAGUlC4E-75657600

Jx22Lppx-41694205
Bee1Wtyu-74012945
N7RMHUDi-48982152
II9reoRe-31308605

wAV0hvs1-57050849
4xGomZGe-28065847
ASkqxwKx-58353406
