vs^2)yS.pXu8>MP

(3?J/21.WAM?M%

ya?$(>(,
)8=l'%

Wfckw<

<)A
"O]

GTxYIInNf|9p|

9
]-
QwE)

rk~bQv

ez?l&[HWf5

Z

x0@[kXC

n}|P;
-B:^z-8J';&N-z
"I0

4m&
%Z)S?KOC,7:
Bz{U(.\v~ea'>

!hTa>U'sCoi

\sey>]?AwUH

jr7`*Y&}J>I

d[KJ/2/4

(xsec

p/Y$?@yuT05
zUmgR@Agb9
#1I[aqO$E4v:h
O(F]o"!d

Ry`AGf<Th;1e=4

|f
Y!Cks;^m.zE

7mB{3pwFF6RQ7

xx*:>Q:{`I4`,/
