20

5
Cand1
Cand2
Cand3
Cand4
Cand5
5 1 2 3 4
4 3 2 1 5
4 5 1 3 2
2 3 1 4 5
1 2 3 4 5
5 4 3 2 1

4
Cand1
Cand2
Cand3
Cand4
1 2 3 4
3 2 1 4
3 2 4 1
2 4 1 3
2 4 1 3
3 2 1 4
1 2 3 4

8
Cand1
Cand2
Cand3
Cand4
Cand5
Cand6
Cand7
Cand8
3 4 5 2 1 6 7 8
8 7 6 5 4 3 2 1
7 5 6 4 1 2 3 8
6 1 2 5 3 4 8 7
1 3 2 4 6 5 7 8
2 6 1 8 7 3 5 4

2
Cand1
Cand2
1 2
2 1
1 2
1 2
2 1
2 1
1 2

4
Cand1
Cand2
Cand3
Cand4
1 2 3 4
4 2 3 1
2 3 1 4
2 1 3 4
4 1 2 3
3 1 2 4
2 3 1 4
1 4 2 3

10
Cand1
Cand2
Cand3
Cand4
Cand5
Cand6
Cand7
Cand8
Cand9
Cand10
1 2 3 4 5 6 7 8 9 10
3 1 2 4 6 5 8 7 9 10
10 9 8 7 6 5 4 3 2 1
9 8 7 5 3 2 4 1 6 10

7
Cand1
Cand2
Cand3
Cand4
Cand5
Cand6
Cand7
2 3 1 5 6 7 4
4 5 1 2 3 6 7
2 3 1 5 4 7 6
1 3 4 2 5 6 7
7 2 3 1 5 6 4
6 5 3 2 4 1 7
7 1 3 6 2 4 5

6
Cand1
Cand2
Cand3
Cand4
Cand5
Cand6
1 2 3 4 5 6
3 1 2 4 5 6
5 4 3 2 6 1
2 5 4 3 1 6
6 5 4 3 2 1
6 4 5 2 3 1

8
Cand1
Cand2
Cand3
Cand4
Cand5
Cand6
Cand7
Cand8
4 5 1 7 2 3 6 8
5 1 2 3 4 6 7 8
8 2 1 3 5 4 6 7
4 5 6 2 3 1 7 8
4 1 2 3 7 6 5 8

4
Cand1
Cand2
Cand3
Cand4
1 2 3 4
4 2 3 1
3 2 1 4
1 4 2 3
4 2 3 1
1 3 4 2

6
Cand1
Cand2
Cand3
Cand4
Cand5
Cand6
1 2 3 4 5 6
3 1 2 4 5 6

5
Cand1
Cand2
Cand3
Cand4
Cand5
1 2 3 4 5
5 4 2 3 1
3 2 1 4 5

9
Cand1
Cand2
Cand3
Cand4
Cand5
Cand6
Cand7
Cand8
Cand9
1 3 2 4 5 6 7 8 9
2 3 5 6 1 7 8 9 4
9 1 6 2 3 5 4 8 7
8 2 4 3 1 9 7 6 5
6 7 5 1 2 8 9 3 4
6 1 2 4 3 8 9 5 7

3
Cand1
Cand2
Cand3
1 2 3
3 2 1
2 3 1

7
Cand1
Cand2
Cand3
Cand4
Cand5
Cand6
Cand7
1 2 3 4 5 6 7
3 2 1 5 6 7 4
2 4 3 1 7 5 6
5 6 7 3 2 1 4

6
Cand1
Cand2
Cand3
Cand4
Cand5
Cand6
1 2 3 4 5 6
3 5 4 6 2 1
6 5 4 3 2 1
1 5 2 3 6 4
1 5 2 3 4 6

9
Cand1
Cand2
Cand3
Cand4
Cand5
Cand6
Cand7
Cand8
Cand9
1 2 3 4 5 8 9 6 7
4 2 3 1 5 7 6 8 9
9 2 4 1 5 6 3 7 8
8 1 2 5 3 4 7 6 9
1 5 2 3 4 6 7 8 9
1 6 9 2 8 3 4 5 7
7 2 4 6 3 5 8 9 1

4
Cand1
Cand2
Cand3
Cand4
3 2 1 4
4 3 2 1
4 3 1 2
4 3 2 1
3 2 1 4
1 2 3 4
2 3 4 1

3
Cand1
Cand2
Cand3
2 3 1
3 2 1
3 2 1
3 2 1
2 1 3
2 3 1
1 2 3

8
Cand1
Cand2
Cand3
Cand4
Cand5
Cand6
Cand7
Cand8
5 6 3 2 4 1 7 8
6 7 8 2 3 4 1 5
1 2 3 4 5 6 7 8
1 5 2 3 6 4 8 7
7 1 6 2 3 5 4 8
